…
vft_bci_taxa
#> # A tibble: 1,428 x 21
#>    ViewID SpeciesID SubspeciesID Family   Mnemonic Genus SpeciesName Rank 
#>     <int>     <int> <chr>        <chr>    <chr>    <chr> <chr>       <chr>
#>  1      1         1 <NA>         Fabacea~ pit1ba   Abar~ barbouriana <NA> 
#>  2      2         3 <NA>         Fabacea~ acacco   Acac~ collinsii   <NA> 
#>  3      3         4 <NA>         Fabacea~ acacme   Acac~ melanoceras <NA> 
#>  4      4         5 <NA>         Fabacea~ acac1    Acac~ sp.1        <NA> 
#>  5      5         6 <NA>         Euphorb~ acaldi   Acal~ diversifol~ <NA> 
#>  6      6         7 <NA>         Euphorb~ acalma   Acal~ macrostach~ <NA> 
#>  7      7         8 <NA>         Cactace~ acante   Acan~ tetragonus  <NA> 
#>  8      8         9 <NA>         Euphorb~ acidni   Acid~ nicaraguen~ <NA> 
#>  9      9        10 <NA>         Fabacea~ acospa   Acos~ panamense   <NA> 
#> 10     10        11 <NA>         Arecace~ acropa   Acro~ aculeata    <NA> 
#> # ... with 1,418 more rows, and 13 more variables: Subspecies <chr>,
#> #   Authority <chr>, IDLevel <chr>, subspMnemonic <chr>,
#> #   subspAuthority <chr>, FieldFamily <chr>, Lifeform <chr>,
#> #   Description <chr>, wsg <dbl>, wsglevel <chr>, ListOfOldNames <chr>,
#> #   Specimens <chr>, Reference <chr>
```
…
